…
First order of business is to look at top visitors to the server.

``` r
# group by client ip address and count the number of visits 
log_file %>%
  select(client_ip) %>%
  group_by(client_ip) %>%
  summarise(count = n()) %>%
  arrange(desc(count))
```

    ## # A tibble: 10,426 x 2
    ##    client_ip       count
    ##    <chr>           <int>
    ##  1 93.158.147.8    13849
    ##  2 77.88.26.27      1444
    ##  3 10.200.50.100    1284
    ##  4 95.108.151.244   1184
    ##  5 200.24.17.36     1028
    ##  6 199.21.99.116     943
    ##  7 216.244.66.244    833
    ##  8 205.203.134.197   830
    ##  9 208.115.111.73    805
    ## 10 100.43.83.146     691
    ## # ... with 10,416 more rows
…
One particular ip (93.158.147.8) accounts for almost 20% of the total errors received. So let us look at it closely. Also it helps if we look closely at what kind of resources these clients are requesting from the server.

``` r
log_file %>%
  filter(status_code == 404) %>%
  group_by(client_ip) %>%
  summarise(count =n()) %>%
  arrange(desc(count)) %>%
  left_join(., log_file) %>%
  group_by(request_type) %>%
  summarise(count = n()) %>%
  arrange(desc(count))
```

    ## # A tibble: 2,864 x 2
    ##    request_type                                    count
    ##    <chr>                                           <int>
    ##  1 GET /robots.txt HTTP/1.1                        18197
    ##  2 GET / HTTP/1.1                                  17115
    ##  3 GET /robots.txt HTTP/1.0                         5434
    ##  4 GET /Weather.html HTTP/1.1                       2403
    ##  5 GET /Sub/About.html HTTP/1.1                     2398
    ##  6 GET /Sub/Internet.html HTTP/1.1                  2398
    ##  7 GET /Sub/Search.html HTTP/1.1                    2380
    ##  8 GET /Sub/Services.html HTTP/1.1                  2347
    ##  9 GET /Sub/Copyright.html HTTP/1.1                 2330
    ## 10 GET /LongDistance/Rates.html?logo=mtld HTTP/1.1  2210
    ## # ... with 2,854 more rows
…
